<?xml version="1.0" encoding="utf-8"?>
<!-- Generator: Adobe Illustrator 19.2.1, SVG Export Plug-In . SVG Version: 6.00 Build 0)  -->
<svg version="1.1" id="Layer_1" xmlns="http://www.w3.org/2000/svg" xmlns:xlink="http://www.w3.org/1999/xlink" x="0px" y="0px"
	 viewBox="0 0 400 356.9" style="enable-background:new 0 0 400 356.9;" xml:space="preserve">
<style type="text/css">
	.st0{fill:#E6E6E6;}
	.st1{fill:#E0E0E0;}
	.st2{fill:#FAFAFA;}
	.st3{fill:#F5F5F5;}
	.st4{fill:#F0F0F0;}
	.st5{fill:#FFFFFF;}
	.st6{fill:#E58A7B;}
	.st7{fill:#AB9332;}
	.st8{opacity:0.2;enable-background:new    ;}
	.st9{fill:#E8ECF1;}
	.st10{fill:#4C3F09;}
	.st11{fill:#CF6F64;}
	.st12{fill:#DF5753;}
	.st13{opacity:0.56;fill:#FAFAFA;enable-background:new    ;}
	.st14{opacity:7.000000e-002;fill:#AB9332;enable-background:new    ;}
	.st15{opacity:0.47;fill:#AB9332;enable-background:new    ;}
	.st16{opacity:0.1;fill:#FFFFFF;enable-background:new    ;}
	.st17{opacity:0.6;enable-background:new    ;}
	.st18{opacity:0.4;enable-background:new    ;}
	.st19{opacity:0.4;fill:#FFFFFF;enable-background:new    ;}
	.st20{opacity:0.3;fill:#FFFFFF;enable-background:new    ;}
</style>
<g>
	<rect x="38.3" y="326.9" class="st0" width="33.1" height="0.3"/>
	<rect x="8.6" y="326.9" class="st0" width="19.2" height="0.3"/>
	<rect x="138" y="330.6" class="st0" width="19.2" height="0.3"/>
	<rect x="214" y="336.2" class="st0" width="43.2" height="0.3"/>
	<rect x="198.8" y="336.2" class="st0" width="6.3" height="0.3"/>
	<rect x="306.3" y="330.6" class="st0" width="93.7" height="0.3"/>
	<rect x="192" y="226.4" class="st1" width="22" height="87.2"/>
	<polygon class="st2" points="209.8,313.6 214,313.6 214,301.7 205.4,301.7 	"/>
	<rect x="95.7" y="226.4" class="st1" width="22" height="87.2"/>
	<rect x="114" y="226.4" class="st2" width="100" height="79.9"/>
	<path class="st1" d="M210.4,230.3v21.1h-92.8v-21.1H210.4 M210.7,229.9h-93.5v21.9h93.5V229.9L210.7,229.9z"/>
	<polygon class="st2" points="118.2,313.6 114,313.6 114,301.7 122.5,301.7 	"/>
	<path class="st0" d="M161.8,240.9c0,1.2,1,2.2,2.2,2.2c1.2,0,2.2-1,2.2-2.2s-1-2.2-2.2-2.2l0,0
		C162.8,238.7,161.8,239.7,161.8,240.9z"/>
	<path class="st1" d="M210.4,255.8v21.1h-92.8v-21.1H210.4 M210.7,255.4h-93.5v21.9h93.5V255.4L210.7,255.4z"/>
	<path class="st0" d="M161.8,266.4c0,1.2,1,2.2,2.2,2.2c1.2,0,2.2-1,2.2-2.2s-1-2.2-2.2-2.2l0,0
		C162.8,264.2,161.8,265.2,161.8,266.4z"/>
	<path class="st1" d="M210.4,281.2v21.2h-92.8v-21.2H210.4 M210.7,280.8h-93.5v21.9h93.5V280.8L210.7,280.8z"/>
	<path class="st0" d="M161.8,291.8c0,1.2,1,2.2,2.2,2.2c1.2,0,2.2-1,2.2-2.2s-1-2.2-2.2-2.2C162.8,289.6,161.8,290.6,161.8,291.8
		L161.8,291.8z"/>
	<rect x="82.2" y="175.7" class="st1" width="22" height="137.9"/>
	<polygon class="st2" points="100,313.6 104.2,313.6 104.2,301.7 95.7,301.7 	"/>
	<rect y="175.7" class="st1" width="22" height="137.9"/>
	<rect x="18.4" y="175.7" class="st2" width="85.8" height="130.6"/>
	<path class="st1" d="M100.5,179.4V209H22.1v-29.6H100.5 M101,179H21.6v30.4H101V179L101,179z"/>
	<path class="st1" d="M100.5,212.6V291H63.1v-78.4H100.5 M101,212.1H62.7v79.4H101V212.1L101,212.1z"/>
	<path class="st1" d="M59.4,212.6V291H22.1v-78.4H59.4 M59.9,212.1H21.6v79.4h38.3V212.1L59.9,212.1z"/>
	<polygon class="st2" points="22.6,313.6 18.4,313.6 18.4,301.7 26.9,301.7 	"/>
	<path class="st0" d="M59.1,194.2c0,1.2,1,2.2,2.2,2.2s2.2-1,2.2-2.2s-1-2.2-2.2-2.2l0,0C60.1,192,59.1,193,59.1,194.2z"/>
	<path class="st0" d="M67,249.9c0,1.2,1,2.2,2.2,2.2s2.2-1,2.2-2.2s-1-2.2-2.2-2.2l0,0C68,247.7,67,248.7,67,249.9L67,249.9z"/>
	<path class="st0" d="M51.2,249.9c0,1.2,1,2.2,2.2,2.2s2.2-1,2.2-2.2s-1-2.2-2.2-2.2S51.2,248.7,51.2,249.9L51.2,249.9z"/>
	<path class="st1" d="M48.7,137.3h-9.3c0.9,4.5,1.4,9,1.6,13.6c0,5-7.1,24.8,3,24.8s3-19.8,3-24.8C47.2,146.3,47.8,141.8,48.7,137.3
		z"/>
	<path class="st3" d="M13.4,157.5v6c0,6.7,5.4,12.1,12.1,12.1h6c6.7,0,12.1-5.4,12.1-12.1v-6H13.4z"/>
	<path class="st1" d="M142.3,213.7c0,7,7.8,12.7,17.4,12.7h8.6c9.6,0,17.4-5.7,17.4-12.7H142.3z"/>
	<path class="st1" d="M371.2,203.4c-5.2,4.3-12.5,12.1-19.1,23.1c-4.4,7.3-7.1,15-8.3,25.2c0-11.5,0.1-23.9,0.1-35.5
		c1.3-3,4.4-9.9,6.5-15.4c7.3-18.2,10-22.7,16.5-38.4c8.7-21,17.7-45.9,15.1-43.9c-5.2,4.1-25.2,41.5-27.4,46.9
		c-5.9,14.3-9.5,29.4-10.8,44.8c0-11,0.1-21,0.1-28.8c0.1-25.3,0.6-33.5,0.8-36c0.8-1.3,1.8-2.8,2.3-3.6c4.7-6.8,6.5-12.6,10.9-22.7
		c6.3-14.4,11.7-39.8,10.1-38.6c-6.6,5.4-11.8,16.9-18.6,31.5s-4.9,23.1-6.2,35.6c-0.3,2.5-0.5,11.7-0.7,24.6
		c-1.8-13.7-5.1-22.7-11.1-30.9c-7.4-10.1-14.6-16.9-19.9-20.5s9.1,21.2,16,32c6.1,9.6,11.8,18.1,15,26.5c-0.2,17.4-0.3,39.5-0.3,60
		c-1.6-9.3-4.2-19.4-7.6-27.2c-4.1-9.4-10.5-23.7-15.6-28.6c-1.2-1.2,5.3,26.8,9.5,34.2s7.3,14.4,9.9,18.6c0.6,1,2.6,4.8,3.8,7
		c0,25.1,0.1,47.2,0.4,54.7h1.1c-0.1-1.9-0.1-14.7-0.1-31.6c2.6-9.2,8.6-19.6,13.5-29.2C362.7,227.1,376.5,199.2,371.2,203.4z"/>
	<polygon class="st4" points="359,313.6 327.7,313.6 325.3,282.9 361.4,282.9 	"/>
	<polygon class="st3" points="363.7,286.5 323,286.5 321.8,276.1 364.9,276.1 	"/>
	<rect x="14.8" y="4.9" class="st1" width="56" height="61.6"/>
	<rect x="19" y="4.9" class="st3" width="57.9" height="61.6"/>
	<rect x="23.9" y="9.7" class="st5" width="48.2" height="51.8"/>
	<rect x="35.6" y="22.3" class="st3" width="24.8" height="26.7"/>
	<rect x="304.6" y="12.1" class="st1" width="52.1" height="57.2"/>
	<rect x="308.5" y="12.1" class="st3" width="53.8" height="57.2"/>
	<rect x="313" y="16.6" class="st5" width="44.8" height="48.2"/>
	<circle class="st3" cx="335.4" cy="40.7" r="14"/>
	<rect x="87.5" y="41.6" class="st1" width="41.6" height="45.7"/>
	<rect x="90.6" y="41.6" class="st3" width="42.9" height="45.7"/>
	<rect x="94.2" y="45.2" class="st5" width="35.7" height="38.5"/>
	<polygon class="st3" points="112.1,54.7 102.3,71.6 121.9,71.6 	"/>
	<g id="freepik--Shadow--inject-37">
		<ellipse class="st3" cx="196.6" cy="345.6" rx="193.9" ry="11.3"/>
	</g>
	<g id="freepik--character-2--inject-37">
		<path class="st6" d="M295.9,92.8l-9.9-4c0,0-13.1,23.9-16.8,25.1c-5.1,1.6-15.7,6.2-21.9,7c-0.9,1-2.2,4.1-2.1,5.2
			c8.4,2.8,26.9-0.9,30.9-3.9C284.9,115.6,295.9,92.8,295.9,92.8z"/>
		<path class="st7" d="M298.9,87.4c1.9,6.8-8.2,20.6-8.2,20.6l-13.1-7.4c0,0,2.5-5.6,5.5-11.4C287.9,79.9,296.8,79.6,298.9,87.4z"/>
		<path class="st8" d="M298.9,87.4c1.9,6.8-8.2,20.6-8.2,20.6l-13.1-7.4c0,0,2.5-5.6,5.5-11.4C287.9,79.9,296.8,79.6,298.9,87.4z"/>
		<path class="st8" d="M282.8,103.5l5.2,2.9l0.9-15.9C285.9,92.9,283.8,99.8,282.8,103.5z"/>
		<path class="st7" d="M290.3,82.3c0,0-10.2,22.7-4.3,65.1h40.3c0.6-6.2-1.5-36.3,6.2-65.5c-4.4-0.9-8.9-1.4-13.4-1.7
			c-5.7-0.3-11.4-0.3-17.1,0C298,80.6,294.1,81.3,290.3,82.3z"/>
		<path class="st8" d="M290.3,82.3c0,0-10.2,22.7-4.3,65.1h40.3c0.6-6.2-1.5-36.3,6.2-65.5c-4.4-0.9-8.9-1.4-13.4-1.7
			c-5.7-0.3-11.4-0.3-17.1,0C298,80.6,294.1,81.3,290.3,82.3z"/>
		<path class="st9" d="M280.9,346.5c-0.1,1.1,15.2,2,34.1,2s34.3-0.9,34.3-2s-15.2-1.9-34.1-1.9S281,345.5,280.9,346.5z"/>
		<rect x="303.5" y="319" transform="matrix(0.9326 -0.361 0.361 0.9326 -97.4961 133.0376)" class="st6" width="7.7" height="17"/>
		<polygon class="st6" points="339.6,338.9 332.1,338.9 329.4,321.4 336.9,321.4 		"/>
		<path class="st10" d="M331.6,338h8.5c0.3,0,0.6,0.2,0.6,0.5l1.1,6.7c0.1,0.6-0.4,1.2-1,1.3c-0.1,0-0.1,0-0.2,0
			c-3,0-4.4-0.2-8.1-0.2c-2.3,0-7,0.2-10.2,0.2s-3.4-3.1-2.1-3.4c5.9-1.3,8.2-3,10.1-4.7C330.7,338.1,331.1,338,331.6,338z"/>
		<path class="st10" d="M306.6,335.4l8-2.3c0.3-0.1,0.6,0.1,0.8,0.3l3,6c0.3,0.6,0,1.3-0.6,1.5c-0.1,0-0.1,0-0.2,0.1
			c-2.9,0.8-4.9,1.3-8.5,2.4c-2.5,0.7-5.1,1.9-7.5,2.7c-1.7,0.5-5.8,0.6-7.9,0.6c-3.1,0-3.8-3.3-2.5-3.4c3.4-0.4,3.8-0.2,5.6-1.1
			c3-1.3,5.8-3.2,8.1-5.6C305.4,336,306,335.6,306.6,335.4z"/>
		<path class="st6" d="M248.4,120.9l-8.3-3.5l-3.4,9.2c3.4,0.5,6.8,0.5,10.2,0L248.4,120.9z"/>
		<polygon class="st6" points="234,117.2 233.8,123.3 236.7,126.6 240.1,117.4 		"/>
		
			<rect x="302.9" y="320.6" transform="matrix(0.9329 -0.3602 0.3602 0.9329 -96.4721 132.3106)" class="st11" width="7.7" height="8.8"/>
		<polygon class="st11" points="336.9,321.4 329.4,321.4 330.8,330.4 338.3,330.4 		"/>
		<path class="st8" d="M284.7,135.9c0.1,1.8,0.3,3.7,0.5,5.6l29.9-9.7c4.7-1.4,8.7-4.3,11.5-8.3c0.1-2.7,0.3-5.5,0.5-8.4
			c0.1-1.4,0.2-2.9,0.4-4.4s0.3-3.1,0.5-4.7L284.7,135.9z"/>
		<path class="st5" d="M294.5,103.1l-1-0.1c0.6-5,4.3-8.9,8.3-8.8v1C298.3,95.1,295,98.6,294.5,103.1z"/>
		<path class="st5" d="M299.8,112.3h-0.2v-1c3.4,0.1,6.7-3.5,7.2-7.9l1,0.1C307.3,108.4,303.7,112.3,299.8,112.3z"/>
		<path class="st6" d="M318.5,60.9c-1.4,5.5-3.1,15.6,0.6,19.3c0,0-2.5,5.6-12.8,5.6c-9.4,0-4.3-5.6-4.3-5.6c6.2-1.5,6.3-6,5.5-10.3
			L318.5,60.9z"/>
		<path class="st11" d="M314,64.6l-6.5,5.3c0.2,1,0.3,2,0.4,3c1.9,1.9,5.7-2.9,6.1-5.4C314.2,66.5,314.2,65.5,314,64.6z"/>
		<path class="st11" d="M296.3,60.8c0.9,1.6,2.5,2.7,4.3,3.1c2.4,0.5,3.6-1.7,2.9-3.9c-0.6-2-2.6-4.7-5-4.2c-1.8,0.4-3,2.1-2.6,3.9
			C295.9,60.2,296.1,60.5,296.3,60.8z"/>
		<path class="st10" d="M300.2,43.2c-3.7,1.7-5.1,16.6-0.4,18.8S307.3,40,300.2,43.2z"/>
		<path class="st6" d="M319.7,52.6c-0.9,7.5-1,11.8-5,15.7c-3.7,3.8-9.8,3.9-13.6,0.2c-1.4-1.4-2.4-3.3-2.8-5.3
			c-1.2-6.7,0.5-17.8,7.9-20.7c4.9-2.1,10.6,0.1,12.7,4.9C319.7,49,319.9,50.8,319.7,52.6z"/>
		<path class="st10" d="M307.4,47.1c5.5-1.4,9.6-2.4,8.1,2.2c-1.9,6.2-4.3,12.1-1.1,12.4c1.9,0.2,10.3-3.4,9.2-7
			c-0.9-3.1,3-4,3.7-5.6c2.6-5.8-4.8-5-3.5-8.5s-6-9.1-10-6.3c-6.5,4.5-17.7,4.5-11.8-3c4.2-5.3-3.3-4.2-3.3-4.2s4.5,2.7-3.1,6.8
			C287.5,38.3,294.9,50.2,307.4,47.1z"/>
		<path class="st6" d="M322.6,60.8c-1.1,1.6-2.7,2.7-4.6,3.1c-2.5,0.5-3.4-1.7-2.5-3.9c0.8-2,3.1-4.7,5.5-4.2S323.9,58.9,322.6,60.8
			z"/>
		<path class="st7" d="M286,147.3c0,0-6.8,60.5-7.3,83.5c-0.5,23.9,22.9,98.4,22.9,98.4l12-5c0,0-14-68.1-12-91.5
			c2.1-25.6,10.9-85.3,10.9-85.3L286,147.3z"/>
		<path class="st8" d="M302.8,164c-5.4,11.2-1.8,33.3,1.2,46.4c1.1-9.3,2.4-19.3,3.7-28.6C307.5,167.5,306.4,156.5,302.8,164z"/>
		<path class="st7" d="M313.1,320.2c0.1,0,1.4,3.8,1.4,3.8l-13.8,5.8l-2.2-4.1L313.1,320.2z"/>
		<path class="st7" d="M300.3,147.3c0,0,5.2,57.5,8.6,79.1c3.8,23.6,18.5,102.2,18.5,102.2h13.8c0,0-8.3-76.7-9.8-100.1
			c-1.7-25.4-5.1-81.2-5.1-81.2L300.3,147.3z"/>
		<path class="st7" d="M341.4,325.1c0.1,0,0.5,3.9,0.5,3.9h-15.2l-1.1-4.4L341.4,325.1z"/>
		<path class="st8" d="M336.1,320.5c-0.1,0-0.1,0-0.1-0.1c-0.1-0.7-7.5-70-8.9-91c-1.5-22.8-4.6-73.3-4.6-73.8c0-0.1,0-0.1,0.1-0.1
			l0,0l0,0c0.1,0,0.1,0.1,0.1,0.1c0,0.5,3.1,51,4.6,73.8c1.4,21,8.9,90.3,8.9,91C336.2,320.5,336.2,320.5,336.1,320.5L336.1,320.5
			L336.1,320.5z"/>
		<path class="st10" d="M308.2,54.7c0,0.6-0.4,1.1-0.8,1.1s-0.7-0.5-0.6-1.1s0.4-1.1,0.8-1.1S308.3,54.1,308.2,54.7z"/>
		<path class="st10" d="M301.4,54.7c0,0.6-0.4,1.1-0.8,1.1s-0.7-0.5-0.7-1.1s0.4-1.1,0.8-1.1S301.4,54.1,301.4,54.7z"/>
		<path class="st12" d="M303.5,55c-0.8,1.9-1.9,3.6-3.2,5.2c1,1,2.9,0.5,2.9,0.5L303.5,55z"/>
		<path class="st10" d="M303.7,63.3c-0.1,0-0.2-0.1-0.2-0.2l0,0c0-0.1,0.1-0.2,0.2-0.2c1.5,0,3-0.7,4-1.9c0.1-0.1,0.2-0.1,0.3,0
			c0.1,0.1,0.1,0.2,0,0.3C306.9,62.6,305.4,63.3,303.7,63.3z"/>
		<path class="st10" d="M309.4,52.8c-0.1,0-0.2,0-0.3,0c-0.8-0.5-1.7-0.6-2.5-0.3c-0.2,0.1-0.4,0-0.5-0.2l0,0
			c-0.1-0.2,0-0.4,0.2-0.5c1.1-0.4,2.3-0.3,3.2,0.3c0.2,0.1,0.2,0.3,0.1,0.5l0,0C309.6,52.8,309.5,52.8,309.4,52.8z"/>
		<path class="st10" d="M298.7,50.8c-0.1,0-0.1,0-0.1-0.1c-0.1-0.1-0.1-0.4,0-0.5l0,0c0.8-0.9,1.9-1.3,3.1-1.2
			c0.2,0,0.3,0.2,0.3,0.4l0,0c0,0.2-0.2,0.3-0.4,0.3l0,0c-0.9-0.1-1.8,0.3-2.4,1C299,50.8,298.8,50.9,298.7,50.8z"/>
		<path class="st6" d="M336.3,91.7l-10.4-2.8c0,0-10.2,25.1-13.8,26.7c-4.9,2.2-17.3,10-22.6,13.7c-0.3,1.3-0.1,4.6,0.6,5.5
			c9-1.6,26.2-8.3,29.8-11.6C328.2,115.5,336.3,91.7,336.3,91.7z"/>
		<path class="st7" d="M329.1,339.3c-0.5,0-1-0.1-1.4-0.4c-0.3-0.2-0.4-0.6-0.3-0.9c0-0.2,0.1-0.4,0.3-0.5c0.8-0.4,3.2,1.1,3.5,1.2
			c0.1,0,0.1,0.1,0.1,0.2s-0.1,0.1-0.1,0.1C330.4,339.2,329.7,339.3,329.1,339.3z M328.1,337.7c-0.1,0-0.2,0-0.2,0
			c-0.1,0-0.1,0.1-0.1,0.2c-0.1,0.2,0,0.5,0.2,0.6c0.4,0.4,1.4,0.4,2.7,0.1C329.8,338.2,328.9,337.9,328.1,337.7L328.1,337.7z"/>
		<path class="st7" d="M331,339L331,339c-0.8-0.4-2.2-2.1-2-2.9c0.1-0.3,0.3-0.5,0.6-0.5c0.3,0,0.5,0,0.8,0.2c0.8,0.7,0.9,2.9,0.9,3
			s0,0.1-0.1,0.2C331.1,339,331,339,331,339z M329.7,336L329.7,336c-0.3,0-0.3,0.1-0.3,0.2c-0.1,0.5,0.8,1.7,1.5,2.3
			c0-0.8-0.3-1.7-0.8-2.4C330,336,329.8,336,329.7,336L329.7,336z"/>
		<path class="st7" d="M302.5,338c-0.6,0.2-1.3,0.2-1.9,0c-0.3-0.2-0.5-0.4-0.5-0.8c0-0.2,0.1-0.4,0.2-0.5c0.8-0.7,4.1,0,4.4,0.1
			c0.1,0,0.1,0.1,0.1,0.2s0,0.1-0.1,0.2C304.1,337.6,303.3,337.8,302.5,338z M300.9,336.9c-0.1,0-0.2,0.1-0.3,0.1
			c-0.1,0-0.1,0.1-0.1,0.2c0,0.2,0.1,0.4,0.3,0.5c0.5,0.3,1.8,0.1,3.4-0.6C303.1,336.8,302,336.8,300.9,336.9z"/>
		<path class="st7" d="M304.8,337.2L304.8,337.2c-1.1-0.2-3.1-1.3-3.1-2.2c0-0.2,0.1-0.5,0.6-0.6c0.3-0.1,0.7-0.1,1,0.1
			c1.1,0.5,1.6,2.5,1.7,2.5C304.9,337.1,304.9,337.1,304.8,337.2L304.8,337.2z M302.4,334.7h-0.1c-0.3,0.1-0.3,0.2-0.3,0.3
			c0,0.5,1.5,1.5,2.5,1.8c-0.2-0.8-0.7-1.5-1.4-2C302.8,334.7,302.6,334.7,302.4,334.7L302.4,334.7z"/>
		<path class="st6" d="M290.4,128.8l-10.4,4.8l-1.2,3l3.9,2.6c0,0,7.2-0.8,9.3-5.4L290.4,128.8z"/>
		<path class="st10" d="M290.8,135c-0.2-2-0.9-3.9-1.9-5.7l1.6-1.2c1.2,2,2,4.2,2.3,6.6L290.8,135z"/>
		<path class="st10" d="M292.6,130.2c0.6,0.9,0.3,2.2-0.6,2.8s-2.2,0.3-2.8-0.6c-0.6-0.9-0.3-2.2,0.6-2.8c0.1-0.1,0.2-0.1,0.3-0.2
			C291,129,292.1,129.3,292.6,130.2z"/>
		<polygon class="st6" points="272.9,137.5 274.3,138.8 283.6,134.8 280,133.6 		"/>
		<path class="st8" d="M313.1,320.2c0.1,0,1.4,3.8,1.4,3.8l-13.8,5.8l-2.2-4.1L313.1,320.2z"/>
		<path class="st8" d="M341.4,325.1c0.1,0,0.5,3.9,0.5,3.9h-15.2l-1.1-4.4L341.4,325.1z"/>
		<path class="st7" d="M339,88.8c2.8,8.9-8,21-8,21l-14.9-6.1c1.8-5.1,3.8-10.2,6.1-15.1C326.8,78.9,336.3,79.9,339,88.8z"/>
		<path class="st8" d="M339,88.8c2.8,8.9-8,21-8,21l-14.9-6.1c1.8-5.1,3.8-10.2,6.1-15.1C326.8,78.9,336.3,79.9,339,88.8z"/>
	</g>
	<g id="freepik--Screen--inject-37">
		<rect x="185.1" class="st7" width="6.4" height="1"/>
		
			<rect x="265.7" y="48.9" transform="matrix(4.501370e-002 -0.999 0.999 4.501370e-002 212.6283 321.1462)" class="st7" width="17.2" height="1"/>
		<polygon class="st7" points="272.2,4.6 154.2,4.6 143.2,250.3 261.2,250.3 		"/>
		<polygon class="st13" points="268.7,8 150.7,8 139.7,253.7 257.7,253.7 		"/>
		<polygon class="st14" points="265.2,11.3 147.2,11.3 136.2,257.1 254.2,257.1 		"/>
		<polygon class="st5" points="251.7,118.5 151,118.5 150.2,137.3 250.9,137.3 		"/>
		<polygon class="st7" points="206.4,104.8 151.6,104.8 151.3,113.2 206,113.2 		"/>
		<polygon class="st5" points="249.5,169.3 148.7,169.3 147.9,188 248.6,188 		"/>
		<polygon class="st15" points="231,213.4 163.3,213.4 162.3,236 230,236 		"/>
		<path class="st5" d="M226.5,239.5h-67.7h-0.1v-0.1l1-22.5c0-0.1,0-0.1,0.1-0.1l0,0h67.7h0.1v0.1l-1,22.6
			C226.6,239.4,226.5,239.5,226.5,239.5z M158.9,239.2h67.5l1-22.3h-67.5L158.9,239.2z"/>
		<polygon class="st7" points="194.6,155.5 149.4,155.5 149,164 194.2,164 		"/>
		<path class="st5" d="M229.7,57.8c-0.3,5.5-2.2,10.7-5.6,15.1c-5,6.6-12.9,10.5-21.2,10.6c-13.4,0.1-24.4-10.7-24.5-24.1
			c0-0.5,0-1,0-1.5c0.7-14.3,12.5-25.5,26.8-25.6c13.4-0.1,24.4,10.6,24.5,24.1C229.8,56.7,229.7,57.3,229.7,57.8z"/>
		<path class="st7" d="M232.1,37.5c-0.1,1.5-0.6,2.9-1.5,4c-1.3,1.8-3.4,2.8-5.6,2.8c-2.1,0-4.2-1-5.4-2.8c-0.8-1.2-1.2-2.6-1.1-4
			c0.2-3.8,3.3-6.8,7.1-6.8c3.6,0,6.5,2.8,6.5,6.4C232.1,37.3,232.1,37.4,232.1,37.5z"/>
		<path class="st10" d="M161.9,127.9c-0.1,1.7-1.5,3-3.1,3s-2.9-1.2-2.9-2.8c0-0.1,0-0.1,0-0.2c0.1-1.7,1.5-3,3.1-3s2.9,1.3,2.9,2.8
			C161.9,127.8,161.9,127.9,161.9,127.9z"/>
		<path class="st10" d="M175.4,127.9c-0.1,1.7-1.5,3-3.1,3s-2.9-1.3-2.9-2.8c0-0.1,0-0.1,0-0.2c0.1-1.7,1.5-3,3.1-3s2.9,1.2,2.9,2.8
			C175.4,127.8,175.4,127.8,175.4,127.9z"/>
		<path class="st10" d="M188.8,127.9c-0.1,1.7-1.5,3-3.1,3s-2.9-1.3-2.9-2.8c0-0.1,0-0.1,0-0.2c0.1-1.7,1.5-3,3.1-3s2.9,1.2,2.9,2.8
			C188.8,127.8,188.8,127.8,188.8,127.9z"/>
		<path class="st10" d="M159.6,178.7c-0.1,1.7-1.5,3-3.1,3s-2.9-1.3-2.9-2.8c0-0.1,0-0.1,0-0.2c0.1-1.7,1.5-3,3.1-3s2.9,1.3,2.9,2.8
			C159.6,178.5,159.6,178.6,159.6,178.7z"/>
		<path class="st10" d="M173.1,178.7c-0.1,1.7-1.5,3-3.1,3s-2.9-1.2-2.9-2.8c0-0.1,0-0.1,0-0.2c0.1-1.7,1.5-3,3.1-3s2.9,1.3,2.9,2.8
			C173.1,178.5,173.1,178.6,173.1,178.7z"/>
		<path class="st10" d="M186.6,178.7c-0.1,1.7-1.5,3-3.1,3s-2.9-1.3-2.9-2.9v-0.1c0.1-1.7,1.5-3,3.1-3s2.9,1.2,2.9,2.8
			C186.6,178.5,186.6,178.6,186.6,178.7z"/>
		<path class="st10" d="M200.1,178.7c-0.1,1.7-1.5,3-3.1,3s-2.9-1.3-2.9-2.9v-0.1c0.1-1.7,1.5-3,3.1-3s2.9,1.3,2.9,2.8
			C200.1,178.5,200.1,178.6,200.1,178.7z"/>
		<path class="st10" d="M213.6,178.7c-0.1,1.7-1.5,3-3.1,3s-2.9-1.2-2.9-2.8c0-0.1,0-0.1,0-0.2c0.1-1.7,1.5-3,3.1-3s2.9,1.3,2.9,2.8
			C213.6,178.5,213.6,178.6,213.6,178.7z"/>
		
			<ellipse transform="matrix(0.715 -0.6992 0.6992 0.715 23.9093 156.9986)" class="st7" cx="204.5" cy="49.2" rx="10.6" ry="10.1"/>
		<path class="st7" d="M224.1,72.8c-5,6.6-12.9,10.5-21.2,10.6c-8.1,0.1-15.7-3.9-20.2-10.6c4.9-4.8,12.6-8,21.1-8
			C212.3,64.8,219.7,68,224.1,72.8z"/>
		
			<ellipse transform="matrix(0.715 -0.6992 0.6992 0.715 23.9093 156.9986)" class="st16" cx="204.5" cy="49.2" rx="10.6" ry="10.1"/>
		<path class="st16" d="M224.1,72.8c-5,6.6-12.9,10.5-21.2,10.6c-8.1,0.1-15.7-3.9-20.2-10.6c4.9-4.8,12.6-8,21.1-8
			C212.3,64.8,219.7,68,224.1,72.8z"/>
	</g>
	<g id="freepik--character-1--inject-37">
		<path class="st6" d="M77,141.8c-0.9,2.1-1.9,4.4-2.8,6.6s-1.8,4.5-2.5,6.8c-1.6,4.5-2.8,9.1-3.6,13.8l-0.2,1.5
			c0,0.3,0,0.5,0.1,0.8c0.2,0.8,0.6,1.6,1.1,2.3c1.3,1.8,2.8,3.5,4.4,5c1.8,1.6,3.6,3.2,5.5,4.6c1.9,1.5,3.9,2.9,5.9,4.3L83,191
			c-4.8-2.1-9.3-4.7-13.4-7.7c-2.2-1.6-4.3-3.5-6-5.7c-1-1.3-1.8-2.7-2.4-4.3c-0.3-1-0.5-2-0.5-3c0-0.2,0-0.6,0-0.8V169l0.1-1
			c0.6-5.2,1.7-10.3,3.3-15.3c0.8-2.5,1.6-4.9,2.6-7.3c1-2.4,1.9-4.7,3.1-7.2L77,141.8z"/>
		<path class="st6" d="M83.5,186.8l7.1-3.6l-1.8,7.8c0,0-4.9,1.4-7.1-1L83.5,186.8z"/>
		<polygon class="st6" points="97,184.5 95.2,190.9 88.7,191 90.6,183.3 		"/>
		<path class="st12" d="M107,104.4c0.4,1.4,0.9,2.7,1.6,4c-0.4,0.4-1,0.6-1.6,0.5V104.4z"/>
		<ellipse class="st10" cx="106.8" cy="103.3" rx="0.8" ry="1.1"/>
		<path class="st10" d="M106.6,102.2l1.5-0.4C108.1,101.8,107.4,103,106.6,102.2z"/>
		<path class="st6" d="M87.5,111.7c0.9,4.6,1.8,13.2-1.4,16.3c0,0,1.3,4.7,9.9,4.7c9.5,0,4.5-4.7,4.5-4.7c-5.2-1.2-5.1-5.1-4.1-8.7
			L87.5,111.7z"/>
		<path class="st6" d="M85,101.1c0.5,7.8,0.5,11.1,4.4,15.1c5.9,6,15.4,3.7,17.2-4c1.7-7,0.6-18.5-7-21.6C94.2,88.4,88,91,85.7,96.4
			C85.1,97.9,84.9,99.5,85,101.1z"/>
		<path class="st10" d="M85.7,92.4c-3.9,1.4-9.1,0.4-7.1,12.4c2.2,12.7-1.2,16.9-1.2,16.9s14.8,3.1,29.9-0.2c0,0-4.6-8.1-3.3-14
			c1.6-7.5,0.4-10.3,0.4-10.3S91.2,90.4,85.7,92.4z"/>
		<path class="st6" d="M102.2,105.2c0,1.5,0.4,2.9,1.2,4.2c1.1,1.6,2.3,1,2.6-0.7c0.3-1.5,0.1-4.2-1.3-5.2S102.3,103.4,102.2,105.2z
			"/>
		<path class="st10" d="M82.4,93.7c-1.1-3.1,4.2-8,15.5-6s11.8,11.4,11.8,11.4l-2.3-2.7l0.1,2.9l-11.6,2.2L82.4,93.7z"/>
		<path class="st7" d="M83.3,128.6L83.3,128.6c-0.1-0.9,0.5-1.8,1.4-2c3.5-0.6,11.5-1.8,15.5-1.2c3,0.4,3.8,2.2,3.9,3.6
			c0.1,1-0.6,1.8-1.6,1.9c-0.1,0-0.2,0-0.2,0l-17.4-0.8C84.1,130,83.4,129.4,83.3,128.6z"/>
		<path class="st17" d="M83.3,128.6L83.3,128.6c-0.1-0.9,0.5-1.8,1.4-2c3.5-0.6,11.5-1.8,15.5-1.2c3,0.4,3.8,2.2,3.9,3.6
			c0.1,1-0.6,1.8-1.6,1.9c-0.1,0-0.2,0-0.2,0l-17.4-0.8C84.1,130,83.4,129.4,83.3,128.6z"/>
		<polygon class="st6" points="93.4,303.3 99.8,307.7 110.6,293.1 104.2,288.6 		"/>
		<polygon class="st6" points="78.3,303 85.1,306.9 94.7,291.4 87.9,287.5 		"/>
		<polygon class="st11" points="110.6,293.1 105,300.7 98.6,296.2 104.1,288.6 		"/>
		<polygon class="st11" points="87.9,287.5 94.7,291.4 89.8,299.4 82.9,295.5 		"/>
		<path class="st7" d="M98.8,177.4c0,0,25.2,31.7,20.4,62.1c-3.8,24.5-25.9,57.7-25.9,57.7L82.9,292c7.3-14.7,13.6-29.9,18.7-45.4
			c3.2-9.8,1.7-20.5-4-29.1c-12.8-18.6-33.2-7.5-19.4-40.1H98.8z"/>
		<path class="st17" d="M98.8,177.4c0,0,25.2,31.7,20.4,62.1c-3.8,24.5-25.9,57.7-25.9,57.7L82.9,292c7.3-14.7,13.6-29.9,18.7-45.4
			c3.2-9.8,1.7-20.5-4-29.1c-12.8-18.6-33.2-7.5-19.4-40.1H98.8z"/>
		<path class="st18" d="M111.2,197.8l-3.7-3.6c0,0.3,7.1,44.1,9.1,56.4c1.2-3.6,2.1-7.3,2.7-11C121.6,224.6,116.7,209.4,111.2,197.8
			z"/>
		<path class="st7" d="M110,177.4c0,0,30.3,39.9,31.2,63.8c0.7,20-33,58.8-33,58.8l-9.8-6.3c0,0,19.7-27.5,24.7-50
			c-1.9-22.4-42.5-66.3-42.5-66.3H110z"/>
		<path class="st17" d="M110,177.4c0,0,30.3,39.9,31.2,63.8c0.7,20-33,58.8-33,58.8l-9.8-6.3c0,0,19.7-27.5,24.7-50
			c-1.9-22.4-42.5-66.3-42.5-66.3H110z"/>
		<path class="st7" d="M72.5,129.8c-3.2,0.8-6.3,12.6-6.3,12.6l12.7,8.5c0,0,4.2-9.3,2.7-13.4C80.1,133.2,76.6,128.8,72.5,129.8z"/>
		<path class="st8" d="M75,137.4l-0.9,10.3l4.7,3.2c1.3-2.9,2.3-6,2.9-9.1L75,137.4z"/>
		<path class="st7" d="M113.8,130c0,0,3.7,1.3-3.8,47.3H78.1c0.5-13,0.6-21-5.7-47.6c4.5-0.9,9-1.5,13.5-1.8c4.8-0.3,9.7-0.3,14.5,0
			C106.7,128.6,113.8,130,113.8,130z"/>
		<path class="st6" d="M117,137.4c0.7,2,1.5,4.1,2.3,6.2c0.8,2.1,1.6,4.2,2.4,6.3l2.4,6.3l0.6,1.6l0.3,0.8l0.1,0.4
			c0,0.1,0,0.1,0,0.1c-0.2-0.3-0.4-0.5-0.7-0.6c-0.4-0.2-0.8-0.4-1.3-0.4c-0.4,0-0.8,0.1-1.1,0.2c-0.5,0.2-0.5,0.3-0.4,0.3
			c0.1-0.1,0.2-0.1,0.2-0.2c0.6-0.7,1-1.5,1.4-2.3c0.5-0.9,0.9-1.9,1.4-2.9c0.9-2,1.7-4.1,2.5-6.2c0.8-2.1,1.6-4.2,2.3-6.3l2.3-6.4
			l3.9,1c-0.8,4.6-1.7,9-2.9,13.5c-0.6,2.3-1.2,4.5-2,6.7c-0.4,1.1-0.8,2.3-1.3,3.4c-0.5,1.2-1.1,2.4-1.8,3.6
			c-0.3,0.4-0.6,0.7-0.9,1.1c-0.5,0.6-1.1,1-1.8,1.3c-0.6,0.3-1.3,0.4-1.9,0.4c-0.7,0-1.5-0.2-2.1-0.6c-0.8-0.5-1.4-1.1-1.8-1.9
			c-0.1-0.3-0.3-0.5-0.4-0.7l-0.2-0.4l-0.4-0.8l-0.8-1.6c-1-2.1-2-4.2-2.9-6.3s-1.8-4.3-2.6-6.4c-0.8-2.1-1.6-4.3-2.4-6.6L117,137.4
			z"/>
		<path class="st7" d="M113.8,130c3.8,0.9,8.1,12.2,8.1,12.2l-11.4,9.7c0,0-7.4-12.3-5.9-16.4C106.2,131.3,108.8,128.8,113.8,130z"
			/>
		<path class="st6" d="M133.6,130.6l4-3.3l2.8,4.3l-2.1,3.6c0,0-3.3,3-6.1,1.5l0,0C131.3,134.5,131.8,132.1,133.6,130.6z"/>
		<polygon class="st6" points="144.8,127.3 144.5,128.3 138.2,129.4 137.6,127.3 		"/>
		<polygon class="st7" points="109,300.4 97.6,293.1 99.6,289.5 112.5,297.4 		"/>
		<path class="st10" d="M89.6,306.3c-1-0.1-2-0.5-2.8-1c-0.1,0-0.1-0.1-0.1-0.2s0.1-0.1,0.1-0.1c0.3-0.1,3-0.9,3.8-0.3
			c0.2,0.1,0.3,0.4,0.2,0.6c0,0.4-0.2,0.7-0.6,0.9C90,306.3,89.8,306.3,89.6,306.3z M87.4,305.2c1.3,0.6,2.3,0.9,2.7,0.6
			c0.2-0.1,0.3-0.3,0.4-0.6c0-0.2,0-0.2-0.1-0.3C89.9,304.7,88.4,304.9,87.4,305.2L87.4,305.2z"/>
		<path class="st10" d="M86.9,305.4c-0.1,0-0.1,0-0.1-0.1s0-0.1,0-0.2s0.6-2.3,1.7-2.8c0.3-0.1,0.6-0.1,0.8,0
			c0.3,0.1,0.5,0.4,0.5,0.7C89.6,304,87.8,305.2,86.9,305.4L86.9,305.4z M88.8,302.7c-0.1,0-0.2,0-0.3,0.1c-0.6,0.3-1.1,1.5-1.4,2.2
			c0.9-0.4,2.1-1.4,2.1-1.9c0-0.1,0-0.2-0.2-0.3C89,302.7,88.9,302.7,88.8,302.7L88.8,302.7z"/>
		<path class="st10" d="M103.9,310.7c-1.1,0-2.7-1.5-3.6-2.3c0-0.1,0-0.1,0-0.2s0.1-0.1,0.2-0.1c0.4,0,3.9,0.5,4.4,1.5
			c0.1,0.2,0.1,0.4,0,0.6c-0.1,0.3-0.4,0.5-0.8,0.6L103.9,310.7z M101,308.4c1.3,1.2,2.4,1.9,3,1.8c0.2,0,0.4-0.2,0.5-0.4
			c0-0.1,0-0.2,0-0.2C104.2,309.1,102.4,308.7,101,308.4L101,308.4z"/>
		<path class="st10" d="M101.1,308.4c-0.2,0-0.4,0-0.7,0c-0.1,0-0.1-0.1-0.1-0.1c0-0.1,0-0.1,0-0.2c0.1-0.1,1.4-1.7,2.7-1.8
			c0.4,0,0.7,0.1,1,0.3c0.4,0.3,0.4,0.6,0.3,0.8C104,308.1,102.2,308.4,101.1,308.4z M100.8,308c1.1,0.1,2.9-0.3,3.1-0.8
			c0,0,0.1-0.2-0.2-0.4c-0.2-0.2-0.5-0.3-0.8-0.2C102.2,306.9,101.4,307.3,100.8,308L100.8,308z"/>
		<path class="st7" d="M87.1,304.3l-8.5-2.4c-0.3-0.1-0.6,0.1-0.8,0.4l-2.9,6.4c-0.3,0.6,0,1.4,0.7,1.6h0.1c3,0.8,4.4,1,8.2,2.1
			c2.3,0.6,5.6,1.8,8.8,2.7s4.2-2.2,3-2.9c-5.6-2.9-6-5-7.5-7.2C88,304.7,87.6,304.5,87.1,304.3z"/>
		<path class="st7" d="M100.5,307.1l-7.2-5c-0.3-0.2-0.6-0.2-0.8,0.1l-4.8,5.2c-0.5,0.5-0.4,1.3,0.1,1.8l0.1,0.1
			c2.6,1.7,3.9,2.4,7.1,4.6c2,1.4,5.9,4.4,8.6,6.3s4.7-0.7,3.8-1.7c-4.3-4.6-5.2-7.5-5.9-10.1C101.2,307.8,100.9,307.4,100.5,307.1z
			"/>
		<polygon class="st7" points="94.7,297.8 81.6,291.4 83,287.8 96.9,294.7 		"/>
		<path class="st7" d="M77.7,175.5l-1.1,2.9c-0.1,0.2,0.1,0.4,0.5,0.4h33.1c0.3,0,0.5-0.1,0.6-0.3l0.3-2.9c0-0.2-0.2-0.4-0.5-0.4
			H78.3C78,175.3,77.8,175.4,77.7,175.5z"/>
		<path class="st19" d="M77.7,175.5l-1.1,2.9c-0.1,0.2,0.1,0.4,0.5,0.4h33.1c0.3,0,0.5-0.1,0.6-0.3l0.3-2.9c0-0.2-0.2-0.4-0.5-0.4
			H78.3C78,175.3,77.8,175.4,77.7,175.5z"/>
		<path class="st7" d="M82.9,179.1H82c-0.2,0-0.3-0.1-0.3-0.2l0.4-3.7c0-0.1,0.2-0.2,0.3-0.2h0.9c0.2,0,0.3,0.1,0.3,0.2l-0.4,3.7
			C83.2,179,83.1,179.1,82.9,179.1z"/>
		<path class="st7" d="M103.3,179.1h-0.9c-0.2,0-0.3-0.1-0.3-0.2l0.4-3.7c0-0.1,0.2-0.2,0.3-0.2h0.9c0.2,0,0.3,0.1,0.3,0.2l-0.4,3.7
			C103.6,179,103.5,179.1,103.3,179.1z"/>
		<ellipse class="st3" cx="82.2" cy="346.5" rx="26.8" ry="1.9"/>
		<path class="st1" d="M98.5,343.8c-4.7-1.4-10-3.1-13.2-5c-0.1-0.1-0.2-0.1-0.3-0.1v-21.5h9.6c1.6-0.1,2.8-1.4,2.7-3
			c-0.1-1.4-1.2-2.6-2.7-2.7h-9.5v-97.8h-5.8v97.8h-9.5c-1.6-0.1-2.9,1.1-3,2.7s1.1,2.9,2.7,3c0.1,0,0.2,0,0.3,0h9.5v21.4
			c-0.1,0-0.2,0.1-0.3,0.1c-3.2,1.9-8.4,3.6-13.2,5c-0.7,0.2-1.2,1-0.9,1.7c0.2,0.6,0.7,1,1.3,1h31.9c0.8-0.1,1.4-0.7,1.3-1.5
			C99.3,344.5,99,344,98.5,343.8z"/>
		<path class="st7" d="M64.4,203.7H100c2.9,0,5.2,2.3,5.2,5.2v10.6c0,2.9-2.3,5.2-5.2,5.2H64.4c-2.9,0-5.2-2.3-5.2-5.2v-10.6
			C59.2,206,61.5,203.7,64.4,203.7z"/>
		<path class="st7" d="M64,224.7v1.8c0,1.5,1.6,2.7,3.6,2.7h29c2,0,3.6-1.2,3.6-2.7v-1.8H64z"/>
		<path class="st20" d="M64,224.7v1.8c0,1.5,1.6,2.7,3.6,2.7h29c2,0,3.6-1.2,3.6-2.7v-1.8H64z"/>
	</g>
</g>
</svg>
