<?xml version="1.0" encoding="utf-8"?>
<!-- Generator: Adobe Illustrator 19.2.1, SVG Export Plug-In . SVG Version: 6.00 Build 0)  -->
<svg version="1.1" id="Layer_1" xmlns="http://www.w3.org/2000/svg" xmlns:xlink="http://www.w3.org/1999/xlink" x="0px" y="0px"
	 viewBox="0 0 387.8 337.5" style="enable-background:new 0 0 387.8 337.5;" xml:space="preserve">
<style type="text/css">
	.st0{fill:#EBEBEB;}
	.st1{fill:#FAFAFA;}
	.st2{fill:#F5F5F5;}
	.st3{fill:#E0E0E0;}
	.st4{fill:#F0F0F0;}
	.st5{fill:#AB9332;}
	.st6{opacity:0.4;fill:#FFFFFF;enable-background:new    ;}
	.st7{fill:#51471D;}
	.st8{opacity:0.2;fill:#FFFFFF;enable-background:new    ;}
	.st9{opacity:0.3;fill:#FFFFFF;enable-background:new    ;}
	.st10{opacity:0.6;}
	.st11{fill:#FFFFFF;}
	.st12{opacity:0.5;fill:#FFFFFF;enable-background:new    ;}
	.st13{fill:#E4897B;}
	.st14{opacity:0.7;fill:#FFFFFF;enable-background:new    ;}
	.st15{opacity:0.8;fill:#FFFFFF;enable-background:new    ;}
	.st16{opacity:0.2;enable-background:new    ;}
	.st17{fill:#DE5753;}
	.st18{opacity:0.1;enable-background:new    ;}
	.st19{opacity:0.3;}
	.st20{opacity:0.4;}
</style>
<g>
	<rect x="266.4" y="311.2" class="st0" width="8.7" height="0.3"/>
	<rect x="340.5" y="299.2" class="st0" width="19.2" height="0.3"/>
	<rect x="48.5" y="300.9" class="st0" width="6.3" height="0.3"/>
	<rect x="166" y="16.2" class="st0" width="91.9" height="207.1"/>
	<rect x="169.5" y="20.1" class="st1" width="85" height="199.4"/>
	<rect x="211" y="19.1" class="st2" width="2" height="202.3"/>
	<rect x="163.9" y="13.5" class="st3" width="96.2" height="9.8"/>
	<rect x="163.9" y="24.3" class="st2" width="96.2" height="1.2"/>
	<rect x="163.9" y="26.9" class="st2" width="96.2" height="1.2"/>
	<rect x="163.9" y="29.6" class="st2" width="96.2" height="1.2"/>
	<rect x="163.9" y="32.2" class="st2" width="96.2" height="1.2"/>
	<rect x="163.9" y="34.8" class="st2" width="96.2" height="1.2"/>
	<rect x="163.9" y="37.4" class="st2" width="96.2" height="1.2"/>
	<rect x="163.9" y="40" class="st2" width="96.2" height="1.2"/>
	<rect x="163.9" y="42.7" class="st2" width="96.2" height="1.2"/>
	<rect x="163.9" y="45.3" class="st2" width="96.2" height="1.2"/>
	<rect x="163.9" y="47.9" class="st2" width="96.2" height="1.2"/>
	<rect x="163.9" y="50.5" class="st2" width="96.2" height="1.2"/>
	<rect x="163.9" y="53.2" class="st2" width="96.2" height="1.2"/>
	<rect x="163.9" y="55.8" class="st2" width="96.2" height="1.2"/>
	<rect x="163.9" y="58.4" class="st2" width="96.2" height="1.2"/>
	<rect x="163.9" y="61" class="st2" width="96.2" height="1.2"/>
	<rect x="163.9" y="63.6" class="st2" width="96.2" height="1.2"/>
	<rect x="163.9" y="66.3" class="st2" width="96.2" height="1.2"/>
	<rect x="163.9" y="68.9" class="st2" width="96.2" height="1.2"/>
	<rect x="274.9" y="16.2" class="st0" width="92" height="207.1"/>
	<rect x="278.3" y="20.1" class="st1" width="85" height="199.4"/>
	<rect x="319.9" y="19.1" class="st2" width="2" height="202.3"/>
	<rect x="272.7" y="13.5" class="st3" width="96.2" height="9.8"/>
	<rect x="272.7" y="24.3" class="st2" width="96.2" height="1.2"/>
	<rect x="272.7" y="26.9" class="st2" width="96.2" height="1.2"/>
	<rect x="272.7" y="29.6" class="st2" width="96.2" height="1.2"/>
	<rect x="272.7" y="32.2" class="st2" width="96.2" height="1.2"/>
	<rect x="272.7" y="34.8" class="st2" width="96.2" height="1.2"/>
	<rect x="272.7" y="37.4" class="st2" width="96.2" height="1.2"/>
	<rect x="272.7" y="40" class="st2" width="96.2" height="1.2"/>
	<rect x="272.7" y="42.7" class="st2" width="96.2" height="1.2"/>
	<rect x="272.7" y="45.3" class="st2" width="96.2" height="1.2"/>
	<rect x="272.7" y="47.9" class="st2" width="96.2" height="1.2"/>
	<rect x="272.7" y="50.5" class="st2" width="96.2" height="1.2"/>
	<rect x="272.7" y="53.2" class="st2" width="96.2" height="1.2"/>
	<rect x="272.7" y="55.8" class="st2" width="96.2" height="1.2"/>
	<rect x="272.7" y="58.4" class="st2" width="96.2" height="1.2"/>
	<rect x="272.7" y="61" class="st2" width="96.2" height="1.2"/>
	<rect x="272.7" y="63.6" class="st2" width="96.2" height="1.2"/>
	<rect x="272.7" y="66.3" class="st2" width="96.2" height="1.2"/>
	<rect x="272.7" y="68.9" class="st2" width="96.2" height="1.2"/>
	<rect x="15.7" y="45.2" class="st3" width="115.7" height="89.9"/>
	<rect x="17.3" y="46.8" class="st0" width="112.5" height="86.7"/>
	<rect x="71.2" y="62.5" class="st3" width="1" height="12.1"/>
	<polygon class="st3" points="44.7,113.5 43.7,113.5 43.7,74.1 95.7,74.1 95.7,96.9 94.7,96.9 94.7,75.1 44.7,75.1 	"/>
	<polygon class="st3" points="110.6,109.2 109.6,109.2 109.6,97.4 82.5,97.4 82.5,108.8 81.5,108.8 81.5,96.4 110.6,96.4 	"/>
	<rect x="58.8" y="58" class="st2" width="25.8" height="8.9"/>
	<rect x="83.3" y="79.4" class="st2" width="24.6" height="9.6"/>
	<rect x="73.6" y="103.8" class="st2" width="16.9" height="10"/>
	<rect x="101" y="105.4" class="st2" width="18.1" height="7.6"/>
	<rect x="32.3" y="81.4" class="st2" width="28" height="12.9"/>
	<rect x="35.2" y="108.8" class="st2" width="17.8" height="9.4"/>
	
		<rect x="68.9" y="72.2" transform="matrix(0.7071 -0.7071 0.7071 0.7071 -32.0168 72.5971)" class="st2" width="5.4" height="5.4"/>
	
		<rect x="92.5" y="94.2" transform="matrix(0.7071 -0.7071 0.7071 0.7071 -40.6347 95.7006)" class="st2" width="5.4" height="5.4"/>
	<circle class="st3" cx="73.6" cy="16.3" r="16.3"/>
	<circle class="st4" cx="73.6" cy="16.3" r="13.9"/>
	<polyline class="st4" points="74.2,6.8 74.2,16.4 80.6,12.8 	"/>
	<path class="st3" d="M74.2,17.4c-0.2,0-0.3,0-0.5-0.1c-0.3-0.2-0.5-0.5-0.5-0.9V6.7c0-0.6,0.4-1,1-1s1,0.4,1,1v8l4.9-2.8
		c0.5-0.3,1.1-0.1,1.4,0.4c0.3,0.5,0.1,1.1-0.4,1.4l-6.4,3.6C74.6,17.4,74.4,17.4,74.2,17.4z"/>
	<g id="freepik--Shadow--inject-440">
		<ellipse id="freepik--path--inject-440" class="st2" cx="193.9" cy="326.2" rx="193.9" ry="11.3"/>
	</g>
	<g id="freepik--Plant--inject-440">
		<path class="st5" d="M42.4,297.3h-0.9c0-1.4,1.2-34.5,6.9-40c5.9-5.8,12.9-0.1,12.9,0l-0.6,0.7c-0.3-0.2-6.4-5.2-11.7,0
			C43.5,263.3,42.4,297,42.4,297.3z"/>
		<path class="st5" d="M41.9,303.9l-0.9-0.1c0-0.4,3.7-40.1-10.7-56.6l0.7-0.6C45.7,263.4,41.9,303.5,41.9,303.9z"/>
		<path class="st5" d="M42.4,299.7c-0.1-1.9-2.9-46,8.2-56.2l0.6,0.7c-10.7,9.9-7.9,55-7.9,55.4L42.4,299.7z"/>
		<path class="st5" d="M41,299.7c0-0.3-0.3-30-8.2-34.5c-1.4-0.9-3.1-1.1-4.6-0.5c-4.6,1.9-7.1,10.7-7.1,10.8l-0.9-0.3
			c0.1-0.4,2.6-9.3,7.6-11.4c1.8-0.7,3.8-0.5,5.4,0.5c8.3,4.8,8.7,34,8.7,35.3L41,299.7z"/>
		<path class="st5" d="M44.2,299.7c-0.1-1-1.3-23.5,5.1-31.8c1.7-2.2,3.6-3.3,5.6-3.1c4.5,0.3,8,6.5,8.2,6.7l-0.8,0.5
			c0-0.1-3.4-6-7.4-6.2c-1.7-0.1-3.3,0.8-4.8,2.8c-6.2,8-4.9,30.9-4.9,31.1H44.2z"/>
		<path class="st5" d="M42.9,302.8l-0.9-0.1c0-0.5,4-54.1-2.6-63.1l0.8-0.6C47,248.3,43.1,300.6,42.9,302.8z"/>
		<path class="st5" d="M26,269.2c0,0,4.1,1.5,2.9,5.1s-14.1,9.4-14.1,9.4s-5.4-5-0.4-13S25.9,266.6,26,269.2z"/>
		<path class="st6" d="M26,269.2c0,0,4.1,1.5,2.9,5.1s-14.1,9.4-14.1,9.4s-5.4-5-0.4-13S25.9,266.6,26,269.2z"/>
		<path class="st5" d="M43.7,262.4c0,0-4.3-0.2-4.6,3.6s9.4,14.1,9.4,14.1s6.9-2.5,5.4-11.8S44.8,260.1,43.7,262.4z"/>
		<path class="st6" d="M43.7,262.4c0,0-4.3-0.2-4.6,3.6s9.4,14.1,9.4,14.1s6.9-2.5,5.4-11.8S44.8,260.1,43.7,262.4z"/>
		<path class="st5" d="M47.4,244.5c0,0-2.9-0.3-2.7-2.1s11.3-6.3,17.8,1c0,0-4.2,7.2-10.2,7.3S47.4,244.5,47.4,244.5z"/>
		<path class="st6" d="M47.4,244.5c0,0-2.9-0.3-2.7-2.1s11.3-6.3,17.8,1c0,0-4.2,7.2-10.2,7.3S47.4,244.5,47.4,244.5z"/>
		<path class="st5" d="M42,240.2c0,0,2.6,1.3,3.4-0.4s-6.2-11.3-15.6-8.5c0,0-0.3,8.3,4.8,11.5S42,240.2,42,240.2z"/>
		<path class="st6" d="M42,240.2c0,0,2.6,1.3,3.4-0.4s-6.2-11.3-15.6-8.5c0,0-0.3,8.3,4.8,11.5S42,240.2,42,240.2z"/>
		<path class="st5" d="M55.7,267.8c0,0-2-1.6,0.2-2.4s12.8-0.6,12.9,9.9c0,0-12.3,2-13.9-2S55.7,267.8,55.7,267.8z"/>
		<path class="st6" d="M55.7,267.8c0,0-2-1.6,0.2-2.4s12.8-0.6,12.9,9.9c0,0-12.3,2-13.9-2S55.7,267.8,55.7,267.8z"/>
		<path class="st5" d="M30.6,244.2c0,0,2-1.6-0.2-2.4s-12.8-0.6-12.9,9.9c0,0,12.3,2,13.9-2S30.6,244.2,30.6,244.2z"/>
		<path class="st6" d="M30.6,244.2c0,0,2-1.6-0.2-2.4s-12.8-0.6-12.9,9.9c0,0,12.3,2,13.9-2S30.6,244.2,30.6,244.2z"/>
		<path class="st5" d="M37.1,252.7c0,0,0.2-2-1.4-1.2s-7.1,6.7-1.4,12.4c0,0,7.7-5.7,6.3-8.7S37.1,252.7,37.1,252.7z"/>
		<path class="st6" d="M37.1,252.7c0,0,0.2-2-1.4-1.2s-7.1,6.7-1.4,12.4c0,0,7.7-5.7,6.3-8.7S37.1,252.7,37.1,252.7z"/>
		<path class="st5" d="M57.5,255.5c0,0-1.2-1.6,0.6-1.8s9.6,1.9,7.8,9.7c0,0-9.6-0.7-10-4S57.5,255.5,57.5,255.5z"/>
		<path class="st6" d="M57.5,255.5c0,0-1.2-1.6,0.6-1.8s9.6,1.9,7.8,9.7c0,0-9.6-0.7-10-4S57.5,255.5,57.5,255.5z"/>
		<polygon class="st7" points="26.7,328.8 57.6,328.8 61.7,298.7 22.6,298.7 		"/>
		<polygon class="st8" points="26.7,328.8 57.6,328.8 61.7,298.7 22.6,298.7 		"/>
		<path class="st7" d="M65.6,296.3v2.9c0,1.9-1.5,3.5-3.4,3.5l0,0H21.8c-1.9,0-3.5-1.5-3.5-3.4l0,0v-2.9h47.3V296.3z"/>
	</g>
	<g id="freepik--trash-bin--inject-440">
		<path class="st5" d="M316.3,302.3c-0.8-1.6-0.1-3.5,1.5-4.3c0.3-0.2,0.7-0.3,1.1-0.3c-0.9-2.7,0-5.7,2.1-7.4
			c0.3-0.2,0.6-0.4,0.9-0.4c0.4,0,0.7,0.2,1,0.4l6,4.3c0.5,0.3,0.9,0.7,1.2,1.2c1.2,2.4-3.2,5.4-1.4,7.3c0.5,0.6,1.4,0.7,2,1.1
			c1.4,0.9,1.6,2.8,2.3,4.4s3,2.7,3.9,1.3c-0.6-1.5,1.3-2.7,2.9-2.9s3.3-0.3,4.1-1.8c2.3,2,7.4-3.5,7.2-5.8c1.9,0.1,3.1,1.9,3.5,3.6
			c0.3,1.8,0.3,3.7,0.2,5.6c0.1,3.6,1.2,7.1,1.2,10.8c0,2.8-1.1,5.9-3.7,7.1c-1.3,0.5-2.6,0.6-4,0.5l-29.3-0.2
			c-0.7,0-1.4-0.1-2.1-0.3c-1.3-0.7-1.6-2.4-1.7-3.9c-0.5-6.4-1-12.7-1.6-19.1L316.3,302.3z"/>
		<path class="st9" d="M316.3,302.3c-0.8-1.6-0.1-3.5,1.5-4.3c0.3-0.2,0.7-0.3,1.1-0.3c-0.9-2.7,0-5.7,2.1-7.4
			c0.3-0.2,0.6-0.4,0.9-0.4c0.4,0,0.7,0.2,1,0.4l6,4.3c0.5,0.3,0.9,0.7,1.2,1.2c1.2,2.4-3.2,5.4-1.4,7.3c0.5,0.6,1.4,0.7,2,1.1
			c1.4,0.9,1.6,2.8,2.3,4.4s3,2.7,3.9,1.3c-0.6-1.5,1.3-2.7,2.9-2.9s3.3-0.3,4.1-1.8c2.3,2,7.4-3.5,7.2-5.8c1.9,0.1,3.1,1.9,3.5,3.6
			c0.3,1.8,0.3,3.7,0.2,5.6c0.1,3.6,1.2,7.1,1.2,10.8c0,2.8-1.1,5.9-3.7,7.1c-1.3,0.5-2.6,0.6-4,0.5l-29.3-0.2
			c-0.7,0-1.4-0.1-2.1-0.3c-1.3-0.7-1.6-2.4-1.7-3.9c-0.5-6.4-1-12.7-1.6-19.1L316.3,302.3z"/>
		<path class="st5" d="M309.4,271.3l0.4,4.6l0.3,3.3l0.7,8.5l0.4,4.9l0.5,6.5l0.2,2.8l0.1,0.8l0.3,3.3l0.4,4.5l0.2,2.8l0.2,2.8
			l0.3,3.3l0.2,2.5l0.2,2.8l0.1,1.2h41.7l0.1-1.2l0.2-2.8l0.2-2.5l0.3-3.3l0.2-2.8l0.2-2.8l0.4-4.5l0.3-3.3l0.1-0.8l0.2-2.8l0.5-6.5
			l0.4-4.9l0.7-8.5l0.3-3.3l0.4-4.6H309.4L309.4,271.3z M311.8,273.5h1l-0.9,0.9l0,0L311.8,273.5z M315.8,273.5h1l4.2,4.2l-4.7,4.7
			l-4.1-4.1l-0.1-1.1L315.8,273.5z M313,288.5l3.2-3.2l4.7,4.7l-4.7,4.7l-3-3L313,288.5z M356.3,291.7l-3,3l-4.7-4.7l4.7-4.6
			l3.2,3.2l0,0L356.3,291.7z M322.4,279.1l4.7,4.7l-4.7,4.7l-4.7-4.7L322.4,279.1z M322.4,276.1l-2.7-2.7h5.3L322.4,276.1z
			 M328.6,285.3l4.7,4.6l-4.7,4.7l-4.7-4.6L328.6,285.3z M334.8,300.8l-4.6-4.7l4.6-4.7l4.7,4.7L334.8,300.8z M340.9,297.7l4.7,4.7
			l-4.7,4.6l-4.7-4.7L340.9,297.7z M333.3,302.3l-4.7,4.7l-4.6-4.7l4.7-4.7L333.3,302.3z M330.1,283.8l4.6-4.7l4.7,4.7l-4.7,4.7
			L330.1,283.8z M340.9,285.3l4.7,4.6l-4.7,4.7l-4.7-4.6L340.9,285.3z M342.4,283.8l4.7-4.7l4.7,4.7l-4.7,4.7L342.4,283.8z
			 M351.7,296.2l-4.7,4.7l-4.7-4.7l4.7-4.7L351.7,296.2z M347.1,303.8l4.7,4.7l-4.7,4.7l-4.7-4.7L347.1,303.8z M345.6,314.7
			l-4.7,4.7l-4.7-4.7l4.7-4.7L345.6,314.7z M334.7,313.2l-4.6-4.7l4.6-4.7l4.7,4.7L334.7,313.2z M333.2,314.7l-4.7,4.7l-4.6-4.7
			l4.7-4.7L333.2,314.7z M327,320.9l-3,3h-3.3l-3-3l4.7-4.7L327,320.9z M322.4,313.2l-4.7-4.7l4.7-4.7l4.7,4.7L322.4,313.2z
			 M322.4,300.8l-4.7-4.7l4.7-4.7l4.7,4.7L322.4,300.8z M328.1,273.5h1l4.2,4.2l-4.7,4.7l-4.7-4.7L328.1,273.5z M332.1,273.5h5.3
			l-2.7,2.7L332.1,273.5z M340.4,273.5h1l4.2,4.2l-4.7,4.7l-4.7-4.7L340.4,273.5z M349.7,273.5l-2.7,2.7l-2.7-2.7H349.7z
			 M353.7,273.5l3.7,3.7l-0.1,1.1l-4.1,4.1l-4.7-4.7l4.2-4.2H353.7z M357.7,273.5l-0.1,0.9l0,0l-0.9-0.9H357.7z M356.7,285.7
			l-1.9-1.9l2.3-2.3L356.7,285.7z M355.8,297.2l-1-1l1.2-1.2l0,0L355.8,297.2L355.8,297.2z M355.2,305.1l-1.9,1.9l-4.7-4.7l4.7-4.7
			l2.3,2.3L355.2,305.1z M354.9,308.6l-0.1-0.1l0.1-0.1V308.6L354.9,308.6z M354.1,318.5l-0.8,0.8l-4.7-4.6l4.7-4.7l1.4,1.4
			L354.1,318.5z M351.8,323.9l1.5-1.5l0.5,0.4l-0.1,1.1H351.8z M348.8,323.9h-3.3l-3-3l4.7-4.7l4.7,4.7L348.8,323.9z M339.4,323.9
			l1.5-1.5l1.5,1.5H339.4z M333.1,323.9l-3-3l4.6-4.7l4.7,4.7l-3,3H333.1z M327.1,323.9l1.5-1.5l1.5,1.5H327.1z M315.8,322.8
			l0.5-0.4l1.5,1.5h-1.9L315.8,322.8z M314.9,311.4l1.3-1.4l4.7,4.7l-4.7,4.6l-0.8-0.8L314.9,311.4z M314.6,308.4l0.1,0.1l-0.1,0.1
			V308.4L314.6,308.4z M313.9,300l2.3-2.3l4.7,4.7l-4.7,4.6l-1.9-1.9L313.9,300z M313.5,295l1.2,1.2l-1,1L313.5,295z M312.4,281.5
			l2.3,2.3l-2,2L312.4,281.5L312.4,281.5z"/>
		<g class="st10">
			<path class="st11" d="M309.4,271.3l0.4,4.6l0.3,3.3l0.7,8.5l0.4,4.9l0.5,6.5l0.2,2.8l0.1,0.8l0.3,3.3l0.4,4.5l0.2,2.8l0.2,2.8
				l0.3,3.3l0.2,2.5l0.2,2.8l0.1,1.2h41.7l0.1-1.2l0.2-2.8l0.2-2.5l0.3-3.3l0.2-2.8l0.2-2.8l0.4-4.5l0.3-3.3l0.1-0.8l0.2-2.8
				l0.5-6.5l0.4-4.9l0.7-8.5l0.3-3.3l0.4-4.6H309.4L309.4,271.3z M311.8,273.5h1l-0.9,0.9l0,0L311.8,273.5z M315.8,273.5h1l4.2,4.2
				l-4.7,4.7l-4.1-4.1l-0.1-1.1L315.8,273.5z M313,288.5l3.2-3.2l4.7,4.7l-4.7,4.7l-3-3L313,288.5z M356.3,291.7l-3,3l-4.7-4.7
				l4.7-4.6l3.2,3.2l0,0L356.3,291.7z M322.4,279.1l4.7,4.7l-4.7,4.7l-4.7-4.7L322.4,279.1z M322.4,276.1l-2.7-2.7h5.3L322.4,276.1z
				 M328.6,285.3l4.7,4.6l-4.7,4.7l-4.7-4.6L328.6,285.3z M334.8,300.8l-4.6-4.7l4.6-4.7l4.7,4.7L334.8,300.8z M340.9,297.7l4.7,4.7
				l-4.7,4.6l-4.7-4.7L340.9,297.7z M333.3,302.3l-4.7,4.7l-4.6-4.7l4.7-4.7L333.3,302.3z M330.1,283.8l4.6-4.7l4.7,4.7l-4.7,4.7
				L330.1,283.8z M340.9,285.3l4.7,4.6l-4.7,4.7l-4.7-4.6L340.9,285.3z M342.4,283.8l4.7-4.7l4.7,4.7l-4.7,4.7L342.4,283.8z
				 M351.7,296.2l-4.7,4.7l-4.7-4.7l4.7-4.7L351.7,296.2z M347.1,303.8l4.7,4.7l-4.7,4.7l-4.7-4.7L347.1,303.8z M345.6,314.7
				l-4.7,4.7l-4.7-4.7l4.7-4.7L345.6,314.7z M334.7,313.2l-4.6-4.7l4.6-4.7l4.7,4.7L334.7,313.2z M333.2,314.7l-4.7,4.7l-4.6-4.7
				l4.7-4.7L333.2,314.7z M327,320.9l-3,3h-3.3l-3-3l4.7-4.7L327,320.9z M322.4,313.2l-4.7-4.7l4.7-4.7l4.7,4.7L322.4,313.2z
				 M322.4,300.8l-4.7-4.7l4.7-4.7l4.7,4.7L322.4,300.8z M328.1,273.5h1l4.2,4.2l-4.7,4.7l-4.7-4.7L328.1,273.5z M332.1,273.5h5.3
				l-2.7,2.7L332.1,273.5z M340.4,273.5h1l4.2,4.2l-4.7,4.7l-4.7-4.7L340.4,273.5z M349.7,273.5l-2.7,2.7l-2.7-2.7H349.7z
				 M353.7,273.5l3.7,3.7l-0.1,1.1l-4.1,4.1l-4.7-4.7l4.2-4.2H353.7z M357.7,273.5l-0.1,0.9l0,0l-0.9-0.9H357.7z M356.7,285.7
				l-1.9-1.9l2.3-2.3L356.7,285.7z M355.8,297.2l-1-1l1.2-1.2l0,0L355.8,297.2L355.8,297.2z M355.2,305.1l-1.9,1.9l-4.7-4.7l4.7-4.7
				l2.3,2.3L355.2,305.1z M354.9,308.6l-0.1-0.1l0.1-0.1V308.6L354.9,308.6z M354.1,318.5l-0.8,0.8l-4.7-4.6l4.7-4.7l1.4,1.4
				L354.1,318.5z M351.8,323.9l1.5-1.5l0.5,0.4l-0.1,1.1H351.8z M348.8,323.9h-3.3l-3-3l4.7-4.7l4.7,4.7L348.8,323.9z M339.4,323.9
				l1.5-1.5l1.5,1.5H339.4z M333.1,323.9l-3-3l4.6-4.7l4.7,4.7l-3,3H333.1z M327.1,323.9l1.5-1.5l1.5,1.5H327.1z M315.8,322.8
				l0.5-0.4l1.5,1.5h-1.9L315.8,322.8z M314.9,311.4l1.3-1.4l4.7,4.7l-4.7,4.6l-0.8-0.8L314.9,311.4z M314.6,308.4l0.1,0.1l-0.1,0.1
				V308.4L314.6,308.4z M313.9,300l2.3-2.3l4.7,4.7l-4.7,4.6l-1.9-1.9L313.9,300z M313.5,295l1.2,1.2l-1,1L313.5,295z M312.4,281.5
				l2.3,2.3l-2,2L312.4,281.5L312.4,281.5z"/>
		</g>
		<path class="st5" d="M308.2,269.4h53.1c0.9,0,1.6,0.7,1.6,1.6v2.7c0,0.9-0.7,1.6-1.6,1.6h-53.1c-0.9,0-1.6-0.7-1.6-1.6V271
			C306.5,270.1,307.3,269.4,308.2,269.4z"/>
		<path class="st5" d="M357.2,328.8h-45c-0.9,0-1.6-0.7-1.6-1.6v-2.7c0-0.9,0.7-1.6,1.6-1.6h45c0.9,0,1.6,0.7,1.6,1.6v2.7
			C358.9,328,358.1,328.8,357.2,328.8z"/>
	</g>
	<g id="freepik--speech-bubble--inject-440">
		<path class="st5" d="M170.5,25.7H137c-6.4,0-11.5,5.2-11.5,11.5v32.5c0,6.4,5.2,11.5,11.5,11.5h4.6v12.1l7.7-12.1h21.2
			c6.4,0,11.5-5.2,11.5-11.5V37.2C181.9,30.9,176.8,25.7,170.5,25.7z"/>
		<path class="st6" d="M170.5,25.7H137c-6.4,0-11.5,5.2-11.5,11.5v32.5c0,6.4,5.2,11.5,11.5,11.5h4.6v12.1l7.7-12.1h21.2
			c6.4,0,11.5-5.2,11.5-11.5V37.2C181.9,30.9,176.8,25.7,170.5,25.7z"/>
		<path class="st11" d="M159.3,48.2c0-2.4-2.1-4.1-5.4-4.1c-2.8-0.2-5.5,1.1-7.1,3.4l-4.2-2.7c2.4-3.3,6.4-5.3,11.8-5.3
			c6.4,0,10.7,2.9,10.7,7.9c0,7.1-7.5,7.8-7.5,12.9h-5.5C152,53.7,159.3,52.5,159.3,48.2z M151.3,67.2c0-1.9,1.5-3.5,3.4-3.5
			s3.5,1.5,3.5,3.4s-1.5,3.5-3.4,3.5c0,0,0,0-0.1,0c-1.8,0.1-3.4-1.4-3.4-3.2C151.3,67.3,151.3,67.3,151.3,67.2L151.3,67.2z"/>
	</g>
	<g id="freepik--Character--inject-440">
		<path class="st7" d="M86.8,180.1c0,0,2.8,56.5,15,66.2h-13c0,0-11.6-19.2-12.5-66.2L86.8,180.1L86.8,180.1z"/>
		<path class="st8" d="M86.8,180.1c0,0,2.8,56.5,15,66.2h-13c0,0-11.6-19.2-12.5-66.2L86.8,180.1L86.8,180.1z"/>
		<path class="st7" d="M77,188.1h12.3c3.6,0,6.2-3.2,5.8-7.2l-0.5-5.3c-0.4-4-3.6-7.2-7.3-7.2H75c-3.6,0-6.2,3.3-5.8,7.2l0.5,5.3
			C70.1,184.8,73.4,188.1,77,188.1z"/>
		<path class="st7" d="M75.1,192.5h20.8c6.1,0,10.5-5.5,9.8-12.3l-0.9-9c-0.7-6.8-6.1-12.3-12.3-12.3H71.7c-6.1,0-10.5,5.5-9.8,12.3
			l0.9,9C63.5,187,69,192.5,75.1,192.5z"/>
		<path class="st12" d="M75.1,192.5h20.8c6.1,0,10.5-5.5,9.8-12.3l-0.9-9c-0.7-6.8-6.1-12.3-12.3-12.3H71.7
			c-6.1,0-10.5,5.5-9.8,12.3l0.9,9C63.5,187,69,192.5,75.1,192.5z"/>
		<path class="st7" d="M85.3,240.5h58.5c2.5,0,4.5,2,4.5,4.5v4.9l0,0H80.8l0,0V245C80.8,242.5,82.8,240.5,85.3,240.5z"/>
		<path class="st12" d="M85.3,240.5h58.5c2.5,0,4.5,2,4.5,4.5v4.9l0,0H80.8l0,0V245C80.8,242.5,82.8,240.5,85.3,240.5z"/>
		<path class="st7" d="M83.2,310.5l26-2.3v-34.1h9.1v34.1l26.1,2.3c2.3,0.3,4,2.2,4,4.5v3.5H79.1V315
			C79.1,312.7,80.9,310.8,83.2,310.5z"/>
		<path class="st7" d="M140,322.8c0,3.3,2.7,6,6,6s6-2.7,6-6s-2.7-6-6-6S140,319.5,140,322.8z"/>
		<path class="st7" d="M87.5,322.8c0,3.3-2.7,6-6,6s-6-2.7-6-6s2.7-6,6-6S87.5,319.5,87.5,322.8z"/>
		<path class="st7" d="M116.2,281.1h-4.9c-2,0-3.7-1.7-3.7-3.7v-29.7l0,0h12.3l0,0v29.7C119.9,279.4,118.2,281.1,116.2,281.1z"/>
		<path class="st8" d="M116.2,281.1h-4.9c-2,0-3.7-1.7-3.7-3.7v-29.7l0,0h12.3l0,0v29.7C119.9,279.4,118.2,281.1,116.2,281.1z"/>
		<path class="st7" d="M80,246.3h69c1,0,1.8,0.8,1.8,1.8v1.1c0,1-0.8,1.8-1.8,1.8H80c-1,0-1.8-0.8-1.8-1.8v-1.1
			C78.2,247.1,79,246.3,80,246.3z"/>
		<path class="st8" d="M140,322.8c0,3.3,2.7,6,6,6s6-2.7,6-6s-2.7-6-6-6S140,319.5,140,322.8z"/>
		<path class="st8" d="M87.5,322.8c0,3.3-2.7,6-6,6s-6-2.7-6-6s2.7-6,6-6S87.5,319.5,87.5,322.8z"/>
		<path class="st7" d="M89.9,105.5c0,0,1.8-5.6,9.1-6.6s16.3,1.4,18.1,4.5s0.4,6.1,2.9,7.1s5.9,3.5,5.3,6s-3.1,7.6-0.4,8.6
			s4.4,5,3.2,7s-1.6,4.5-0.3,5.2s3,2.1,1.9,4.1s-2.2,2.4-0.5,4.1s-1.2,5.8-1.2,5.8s-39.3,4.7-44,0.6s-1.8-7.7-0.8-8.8
			s-1.5-0.7-1.9-4.7s2.1-4.7,2.6-7.1s-2-4.7-0.3-7s2.2-3.6,1-6.1S83.2,105.7,89.9,105.5z"/>
		<path class="st13" d="M157.3,145.5l8.7-1.2l-5.3-8.2c0,0-7.8,3.2-6.8,7.2L157.3,145.5z"/>
		<polygon class="st13" points="172.7,138.9 165.8,133.4 160.7,136.2 166,144.4 		"/>
		<path class="st5" d="M159.4,145.6c0,0-10,35.2-17.9,33.1c-4.3-1.2-8.5-5.4-11.8-9.7c-2.8-3.7-5.2-7.6-7.3-11.8v-0.1l-1-16.7
			c7.8,1.9,19.2,22.8,19.2,22.8l12.6-20.6L159.4,145.6z"/>
		<path class="st14" d="M119.9,164.3c-7.2-6.5-15.3-12.1-23.9-16.7c0.8-0.1,1.6-0.2,2.4-0.2c5.5-0.6,11-0.8,16.5-0.6
			c1.4,0.1,2.8,0.2,4.1,0.3l0,0C122.5,154.9,119.9,164.3,119.9,164.3z"/>
		<path class="st5" d="M96,199.3c-0.8-8.5-3.8-24-9-40.2c-1.7-5.3,1.2-11.3,1.2-11.3s7.1-0.2,7.8-0.3s1.6-0.2,2.4-0.2
			c5.5-0.6,11-0.8,16.5-0.6c1.4,0.1,2.8,0.2,4.1,0.3c0.4,0,5.4,0.1,5.9,0.1c0,0,6.9,7.9,7.3,14.3c0.5,4.9,0.7,9.9,0.6,14.8
			c0,5.8-0.5,13.5-0.8,21.6L96,199.3z"/>
		<path class="st15" d="M96,199.3c-0.8-8.5-3.8-24-9-40.2c-1.7-5.3,1.2-11.3,1.2-11.3s7.1-0.2,7.8-0.3s1.6-0.2,2.4-0.2
			c5.5-0.6,11-0.8,16.5-0.6c1.4,0.1,2.8,0.2,4.1,0.3c0.4,0,5.4,0.1,5.9,0.1c0,0,6.9,7.9,7.3,14.3c0.5,4.9,0.7,9.9,0.6,14.8
			c0,5.8-0.5,13.5-0.8,21.6L96,199.3z"/>
		<path class="st7" d="M96,199.3l36-2.4c0,0,1.1,10.8,0.8,10.7S94.2,209,94.2,209L96,199.3z"/>
		<polygon points="96.4,199.9 132,198 132,201.4 96,203.3 		"/>
		<path class="st11" d="M116.4,202.7c-0.5,0-0.9-0.4-1-0.9l-0.2-2c0-0.5,0.4-1,0.9-1l3.9-0.3c0.3,0,0.5,0.1,0.7,0.3
			c0.2,0.2,0.3,0.4,0.3,0.7v2.1c0,0.5-0.4,1-0.9,1L116.4,202.7L116.4,202.7z M120.2,199.1L120.2,199.1l-3.9,0.3
			c-0.2,0-0.4,0.2-0.4,0.4l0,0l0.2,2c0,0.2,0.2,0.4,0.4,0.4l0,0l3.8-0.2c0.2,0,0.4-0.2,0.4-0.4v-2.1c0-0.1,0-0.2-0.1-0.3
			C120.4,199.1,120.3,199.1,120.2,199.1L120.2,199.1z"/>
		<path class="st7" d="M134.2,205.3c-9.6-1-22-1.7-38.2-2.1c0,0-12.1,28.4,2.2,36.9c4.3,2.6,11.5,3.6,19.3,3.8
			c9,0.2,16.4-6.9,16.6-15.9c0-0.1,0-0.2,0-0.4L134.2,205.3z"/>
		<path class="st5" d="M99,224.1l-12.4-2.3l7.2-26.8c0,0-1.9-6.6-3.9-14.3c-0.5-1.9-1-3.9-1.5-5.8s-0.9-3.6-1.4-5.3
			c-1-3.5-1.7-7-2.3-10.6c-0.2-4.3-0.9-15.8,3.2-17.6c2.4-1.1,7.4,1.5,10.6,2.1c4.7,9.1,7.3,19.1,7.6,29.3
			C106.5,190.1,99,224.1,99,224.1z"/>
		<path class="st5" d="M110.8,143.9c0,0,11.6,1.4,16.6,26.2c2,10,6.8,52.8,6.8,52.8l2.7-1.4l-3.8-25.5c0,0,1.4-29.6,0.3-35.6
			s-6.4-19.2-11.9-20C119.2,140.1,110.8,143.9,110.8,143.9z"/>
		<path class="st5" d="M111.3,143.5l0.6-0.5c6.7,0.9,12.8,4.3,17.1,9.6l-2.7,2.6l4.6,3.8l-2.2,20.3c0,0-7-23.9-10.1-29.6
			C118.7,149.6,113.6,144.6,111.3,143.5z"/>
		<path class="st16" d="M111.3,143.5l0.5-0.4c6.7,0.9,12.8,4.3,17.1,9.5l-2.7,2.6l4.6,3.8l-2.2,20.3c0,0-7-23.9-10.1-29.6
			C118.7,149.6,113.6,144.6,111.3,143.5z"/>
		<path class="st5" d="M98.7,144.5c0,0,9,11.5,7.1,36.7l-9.7-18.1l3.1-4.9l-7.2-6.8c0,0,4.6-9,7.3-8.3L98.7,144.5z"/>
		<path class="st16" d="M98.7,144.5c0,0,9,11.5,7.1,36.7l-9.7-18.1l3.1-4.9l-7.2-6.8c0,0,4.6-9,7.3-8.3L98.7,144.5z"/>
		<path class="st5" d="M99.4,142.5c0,0,2.7,1,11.4,0.4c0,0,3.3,3.1,4.3,6.3s-2.3,6.3-7.6,3.5S99.4,142.5,99.4,142.5z"/>
		<path class="st12" d="M99.4,142.5c0,0,2.7,1,11.4,0.4c0,0,3.3,3.1,4.3,6.3s-2.3,6.3-7.6,3.5S99.4,142.5,99.4,142.5z"/>
		<path class="st13" d="M117.1,149.1l-2,11.9l-15.7-13.8c3.3-3.7,1.2-13.3-0.4-18.6l4.4,3.3l6.6,4.9c-0.1,1.4,0,2.7,0.3,4.1
			c0.5,2.1,1.4,4.1,2.4,4.5L117.1,149.1z"/>
		<path class="st16" d="M110.4,141.1c-2.6-0.6-6.1-3.3-6.7-6c-0.2-1-0.3-2-0.3-3l6.6,4.9C109.9,138.4,110,139.8,110.4,141.1z"/>
		<path class="st5" d="M99.4,142.5c5.6,5.5,10.7,11.5,15.3,17.9c0,0,1.6-12-3.9-17.6l1.3-0.1c4.4,2.9,8.3,6.4,11.6,10.5l-5.2-1.6
			l-3.6,9.6l-10.7-8.9l-7.2,1.3C97,153.6,96.7,144.6,99.4,142.5z"/>
		<path class="st14" d="M99.4,142.5c5.6,5.5,10.7,11.5,15.3,17.9c0,0,1.6-12-3.9-17.6l1.3-0.1c4.4,2.9,8.3,6.4,11.6,10.5l-5.2-1.6
			l-3.6,9.6l-10.7-8.9l-7.2,1.3C97,153.6,96.7,144.6,99.4,142.5z"/>
		<path class="st13" d="M94.1,118.2c1.9,8.5,2.5,12.2,7.6,16.1c7.6,5.9,17.6,2.3,18.2-6.4c0.6-7.9-2.6-20.5-11.6-23
			c-5.9-1.9-12.2,1.3-14.1,7.2C93.6,114.1,93.6,116.2,94.1,118.2z"/>
		<path class="st7" d="M105.1,119.3c0.1,0.7,0.6,1.3,1.1,1.2s0.7-0.7,0.6-1.4s-0.6-1.3-1.1-1.2S104.9,118.6,105.1,119.3z"/>
		<path class="st7" d="M114.1,118c0.1,0.7,0.6,1.3,1.1,1.2s0.7-0.7,0.6-1.4s-0.6-1.3-1.1-1.2S113.9,117.3,114.1,118z"/>
		<path class="st7" d="M114.5,116.7l1.6-0.7C116.1,116,115.5,117.4,114.5,116.7z"/>
		<path class="st17" d="M111.6,119.9c0.9,1.6,2.1,3,3.4,4.3c-0.7,0.6-1.6,0.9-2.4,0.8L111.6,119.9z"/>
		<path class="st7" d="M105.7,112.4c-0.1,0-0.2,0.1-0.3,0.2c-0.5,0.9-1.4,1.6-2.4,1.7c-0.2,0-0.4,0.2-0.4,0.4l0,0
			c0,0.2,0.2,0.4,0.5,0.4c1.3-0.1,2.5-0.9,3.1-2.1c0.1-0.2,0-0.5-0.2-0.6C105.9,112.4,105.8,112.4,105.7,112.4z"/>
		<path class="st7" d="M113.7,110.5c-0.1,0-0.2,0-0.3,0.1c-0.2,0.2-0.2,0.4,0,0.6c0.9,1.1,2.2,1.7,3.6,1.6c0.2,0,0.4-0.2,0.4-0.4
			l0,0c-0.1-0.2-0.3-0.4-0.5-0.3c-1.1,0-2.2-0.5-2.9-1.3C114,110.5,113.9,110.5,113.7,110.5z"/>
		<path class="st7" d="M105.5,117.9l1.6-0.7C107.1,117.3,106.5,118.7,105.5,117.9z"/>
		<path class="st7" d="M98.4,123.2c0,0,4.2-6.1,1-15.1c0,0,9.5-4.6,16.6,2.4c0,0-6.7-11.7-20.6-6.1s-3.4,19-1.7,20.1
			S98.4,123.2,98.4,123.2z"/>
		<path class="st13" d="M92.4,125.6c1.1,1.5,2.8,2.5,4.6,2.7c2.4,0.3,3-2.1,2-4.3c-1-2-3.4-4.5-5.5-3.8S90.9,123.7,92.4,125.6z"/>
		<path class="st7" d="M112.5,129c-0.1,0-0.2,0-0.2-0.1c-1.4-1.3-3.3-1.9-5.2-1.6c-0.2,0-0.3-0.1-0.3-0.2l0,0c0-0.2,0.1-0.3,0.2-0.3
			c2.1-0.3,4.2,0.3,5.7,1.8c0.1,0.1,0.1,0.3,0,0.4C112.7,129,112.6,129,112.5,129z"/>
		<path class="st16" d="M88.3,174.9c-0.5-1.8-0.9-3.6-1.4-5.3c2.3-2.8,3.5-14.6,3.5-14.6S92.1,169.5,88.3,174.9z"/>
		<path class="st13" d="M59,146.5l-8.7-1.2l5.3-8.2c0,0,7.8,3.4,6.8,7.4L59,146.5z"/>
		<polygon class="st13" points="43.5,139.9 50.5,134.4 55.6,137.2 50.3,145.4 		"/>
		<path class="st5" d="M56.9,146.6c0,0,10,35.2,17.9,33.1c4.4-1.2,8.5-5.4,11.8-9.7c2.6-3.4,4.4-7.5,5-11.8l-3.7-16.9
			c-4.7,1-12.2,22.8-12.2,22.8l-12.6-20.6L56.9,146.6z"/>
		<path class="st7" d="M103,228.8v13.4c11.9,3.4,36.6,2.1,51.3,0.9c6.6-0.5,11.7-6.1,11.7-12.7v-11c0-3.6-2.2-6.9-5.6-8.2
			c-7.1-2.7-20.1-6.7-33.6-6.5C113.5,204.9,102.9,215.6,103,228.8z"/>
		<path class="st13" d="M164.7,267.4c-4.3,11.7-9.3,26.4-14.7,44.8c-0.1,0.3-0.2,0.7-0.3,1s-0.2,0.7-0.3,1.1l-5.5-1.3l-2.1-0.5
			c0,0,0.1-0.8,0.3-2.3c0-0.3,0.1-0.6,0.1-1l0,0c1.5-12.9,7.2-60.2,12.9-70.1c0,0-6.4,1.2-11.3,0.4c-3.5-0.6-7.8-24.9-7.8-24.9
			c5.9-1.6,12-2.5,18.2-2.6h0.1c0,0,20.6,3.2,24,8.3C182.6,226.5,176,237,164.7,267.4z"/>
		<path class="st5" d="M157.6,328.8l-12.9-5.7l-4.1-4.6l-1.3,1.7l-1.5-0.7c-0.7-5.7,2.1-8.4,3.5-9.6c0.1-0.1,0.3-0.2,0.4-0.3
			c0-0.1,0.1-0.1,0.2-0.1h0.1l0.2-0.1l0,0l0,0l0.1-0.1l7.1,3.1c0,0,0.1,0.4,0.3,1c0.7,2,2.5,6.5,4.4,9c0.1,0.1,0.2,0.2,0.2,0.3
			c0.2,0.3,0.5,0.5,0.7,0.7C160.6,327.6,157.6,328.8,157.6,328.8z"/>
		<path class="st13" d="M154.4,322.5c-2,0.8-4.9-1.2-7-3.8c-1.3-1.8-2.5-3.7-3.5-5.7c-0.5-1-1.1-1.9-1.8-2.8
			c-0.3-0.3-0.6-0.4-0.8-0.3l0,0c0.1-0.1,0.3-0.2,0.4-0.3c0.1-0.1,0.1-0.1,0.2-0.1h0.1l0.2-0.1l0,0l0,0l0.1-0.1
			c0.7-0.6,1.6-1.1,1.6-1.1l5.7,2.5c0,0,0.2,0.7,0.4,1.7c0.7,2.6,2.3,7.6,4.1,10C154.2,322.3,154.3,322.4,154.4,322.5z"/>
		<path class="st18" d="M164.7,267.4c-4.3,11.7-9.3,26.4-14.7,44.8c0.7,2.6,2.3,7.6,4.1,10c0.1,0.1,0.2,0.2,0.2,0.3
			c0.2,0.3,0.5,0.5,0.7,0.7c5.4,4.4,2.5,5.5,2.5,5.5l-12.9-5.7l-4.1-4.6l-1.3,1.7l-1.5-0.7c-0.7-5.7,2.1-8.4,3.5-9.6
			c0.1-0.1,0.3-0.2,0.4-0.3c0-0.1,0.1-0.1,0.2-0.1h0.1l0.2-0.1l0,0l0,0c1.5-12.9,7.2-60.2,12.9-70.1c0,0-6.4,1.2-11.3,0.4
			c-3.5-0.6-7.8-24.9-7.8-24.9c5.9-1.6,12-2.5,18.2-2.6h0.1c0,0-2.2,0.2-5.1,3.9c0,0,12,2.2,15.3,8.6
			C165.8,227.1,165.5,245.9,164.7,267.4z"/>
		<path class="st13" d="M136,214.6c0,0,20.6,3.2,24,8.3c5.9,8.7-4.8,25.8-24.2,94l-7.6-1.9c0,0,2-61.9,8.6-73.3
			c0,0-6.4,1.2-11.3,0.4C119.2,241,115.3,220.1,136,214.6z"/>
		<path class="st5" d="M127,328.3h1.7l0.5-2.1l5.6,2.5h14.1c0,0,2.3-2.3-4.5-4.1c-0.3-0.1-0.6-0.2-0.9-0.4c-3.6-1.7-8.7-7.4-8.7-7.4
			H127c-0.2,0.4-0.4,0.7-0.6,1.1C125.5,319.8,124,323.4,127,328.3z"/>
		<path class="st13" d="M126.3,318.1L126.3,318.1c1-1.1,5.7,3.9,9.1,5.6c3.1,1.5,6.5,2.2,8,0.6c-3.6-1.7-9.2-9-9.2-9h-6.3
			C127.9,315.3,126.7,317.4,126.3,318.1z"/>
	</g>
	<g id="freepik--Desk--inject-440">
		<g class="st19">
			<path class="st11" d="M260.8,191.5v134c0,1.8,1.4,3.2,3.2,3.2l0,0h62.5c0.7,0,1.2-0.5,1.2-1.2l0,0v-4c0-0.7-0.5-1.2-1.2-1.2
				h-59.3V194.7h58.3c1.2,0,2.2-1,2.2-2.2l0,0v-4.2H264C262.3,188.2,260.8,189.7,260.8,191.5L260.8,191.5z"/>
		</g>
		<path class="st16" d="M260.8,191.5v34.2c2.1,0.5,4.3,1.1,6.5,1.6v-32.5h58.3c1.2,0,2.2-1,2.2-2.2l0,0v-4.2h-63.7
			C262.3,188.2,260.8,189.7,260.8,191.5L260.8,191.5z"/>
		<polygon class="st7" points="253.5,179 252.7,176.1 220.2,176.1 205.2,177.5 204.6,179 		"/>
		<polygon class="st12" points="253.5,179 252.7,176.1 220.2,176.1 205.2,177.5 204.6,179 		"/>
		<polygon class="st16" points="220.2,176.1 220.2,179 253.5,179 252.7,176.1 		"/>
		<path class="st7" d="M231.2,156.8c-0.2,1.8,1.1,3.4,2.9,3.7c0.1,0,0.3,0,0.4,0h64.1c2.1-0.1,3.8-1.6,4-3.7l3.8-41.1
			c0-0.4,0-0.8-0.1-1.2c-0.4-1.5-1.7-2.5-3.2-2.5H239c-2.1,0-3.8,1.6-4,3.7L231.2,156.8z"/>
		<path class="st12" d="M231.2,156.8c-0.2,1.8,1.1,3.4,2.9,3.7c0.1,0,0.3,0,0.4,0h64.1c2.1-0.1,3.8-1.6,4-3.7l3.8-41.1
			c0-0.4,0-0.8-0.1-1.2c-0.4-1.5-1.7-2.5-3.2-2.5H239c-2.1,0-3.8,1.6-4,3.7L231.2,156.8z"/>
		<path class="st18" d="M234.7,160.4h63.9c2.1-0.1,3.8-1.6,4-3.7l3.8-41.1c0-0.4,0-0.8-0.1-1.2h-63.9c-2.1,0.1-3.8,1.6-4,3.7
			l-3.8,41.1C234.6,159.7,234.6,160.1,234.7,160.4z"/>
		<polygon class="st7" points="278.8,135.3 265.5,135.3 269,173.3 248.1,176.4 248.1,179 292.3,179 292.3,176.4 283.2,173.3 		"/>
		<polygon class="st12" points="278.8,135.3 265.5,135.3 269,173.3 248.1,176.4 248.1,179 292.3,179 292.3,176.4 283.2,173.3 		"/>
		<polygon class="st8" points="265.5,135.3 275.4,178.5 283.2,178.2 278.8,135.3 		"/>
		<path class="st7" d="M172.7,328.8h62.5c0.7,0,1.2-0.6,1.2-1.2l0,0v-4c0-0.7-0.6-1.2-1.2-1.2l0,0h-59.3V194.7h58.3
			c1.2,0,2.2-1,2.2-2.2l0,0v-4.2h-63.7c-1.8,0-3.2,1.4-3.2,3.2l0,0v134.1C169.5,327.3,170.9,328.8,172.7,328.8z"/>
		<g class="st20">
			<path class="st11" d="M172.7,328.8h62.5c0.7,0,1.2-0.6,1.2-1.2l0,0v-4c0-0.7-0.6-1.2-1.2-1.2l0,0h-59.3V194.7h58.3
				c1.2,0,2.2-1,2.2-2.2l0,0v-4.2h-63.7c-1.8,0-3.2,1.4-3.2,3.2l0,0v134.1C169.5,327.3,170.9,328.8,172.7,328.8z"/>
		</g>
		<path class="st5" d="M331.5,182.2v5.2c0,1.1-0.9,1.9-2,2h-165c-1.1,0-1.9-0.9-1.9-1.9l0,0v-5.2h168.9V182.2z"/>
		<rect x="162.6" y="182.2" class="st16" width="169" height="3.6"/>
		<path class="st5" d="M337.1,181.1c0,1.1-0.9,2-2,2h-176c-0.5,0-1.1-0.2-1.4-0.6c-0.1-0.1-0.2-0.2-0.3-0.3
			c-0.2-0.3-0.3-0.7-0.3-1.1c0-1.1,0.9-2,2-2h176C336.2,179.1,337.1,179.9,337.1,181.1L337.1,181.1z"/>
		<path class="st8" d="M244.5,179.6c-0.4-0.4-0.9-0.6-1.4-0.6h-84c-1.1,0-2,0.9-2,2c0,0.4,0.1,0.8,0.3,1.1c0.1,0.1,0.2,0.2,0.3,0.3
			c0.4,0.4,0.9,0.6,1.4,0.6h3.5v4.3c0,1.1,0.9,1.9,1.9,1.9l0,0h73c1.1,0,1.9-0.9,1.9-1.9l0,0V183h3.5c0.7,0,1.3-0.3,1.7-0.9
			C245.3,181.3,245.2,180.3,244.5,179.6L244.5,179.6z"/>
		<path class="st7" d="M260.8,191.5v134c0,1.8,1.4,3.2,3.2,3.2l0,0h62.5c0.7,0,1.2-0.5,1.2-1.2l0,0v-4c0-0.7-0.5-1.2-1.2-1.2h-59.3
			V194.7h58.3c1.2,0,2.2-1,2.2-2.2l0,0v-4.2H264C262.3,188.2,260.8,189.7,260.8,191.5L260.8,191.5z"/>
	</g>
</g>
</svg>
